{
    "namespaces": {
      "ontologyIRI": [
        {
          "prefix": "crowd",
          "value": "http://crowd.fi.uncoma.edu.ar#"
        }
      ],
      "defaultIRIs": [
        {
          "prefix": "rdf",
          "value": "http://www.w3.org/1999/02/22-rdf-syntax-ns#"
        },
        {
          "prefix": "rdfs",
          "value": "http://www.w3.org/2000/01/rdf-schema#"
        },
        {
          "prefix": "xsd",
          "value": "http://www.w3.org/2001/XMLSchema#"
        },
        {
          "prefix": "owl",
          "value": "http://www.w3.org/2002/07/owl#"
        }
      ],
      "IRIs": []
    },
    "classes": [
      {
        "name": "http://crowd.fi.uncoma.edu.ar#Persona",
        "attrs": [],
        "methods": [],
        "position": {
          "x": 464,
          "y": 108
        }
      },
      {
        "name": "http://crowd.fi.uncoma.edu.ar#Estudiante",
        "attrs": [],
        "methods": [],
        "position": {
          "x": 335,
          "y": 329
        }
      },
      {
        "name": "http://crowd.fi.uncoma.edu.ar#Profesor",
        "attrs": [],
        "methods": [],
        "position": {
          "x": 604,
          "y": 334
        }
      }
    ],
    "links": [
      {
        "name": "http://crowd.fi.uncoma.edu.ar#s1",
        "parent": "http://crowd.fi.uncoma.edu.ar#Persona",
        "classes": [
          "http://crowd.fi.uncoma.edu.ar#Estudiante",
          "http://crowd.fi.uncoma.edu.ar#Profesor"
        ],
        "multiplicity": null,
        "roles": null,
        "type": "generalization",
        "constraint": [],
        "position": {
          "x": 517,
          "y": 256
        }
      }
    ],
    "owllink": [
      ""
    ]
  }