{
    "namespaces": {
      "ontologyIRI": [
        {
          "prefix": "crowd",
          "value": "http://crowd.fi.uncoma.edu.ar#"
        }
      ],
      "defaultIRIs": [
        {
          "prefix": "rdf",
          "value": "http://www.w3.org/1999/02/22-rdf-syntax-ns#"
        },
        {
          "prefix": "rdfs",
          "value": "http://www.w3.org/2000/01/rdf-schema#"
        },
        {
          "prefix": "xsd",
          "value": "http://www.w3.org/2001/XMLSchema#"
        },
        {
          "prefix": "owl",
          "value": "http://www.w3.org/2002/07/owl#"
        }
      ],
      "IRIs": []
    },
    "classes": [
      {
        "name": "http://crowd.fi.uncoma.edu.ar#Person",
        "attrs": [
          {
            "name": "http://crowd.fi.uncoma.edu.ar#Age",
            "datatype": "http://www.w3.org/2001/XMLSchema#integer"
          }
        ],
        "methods": [],
        "position": {
          "x": 286,
          "y": 134
        }
      },
      {
        "name": "http://crowd.fi.uncoma.edu.ar#Dog",
        "attrs": [
          {
            "name": "http://crowd.fi.uncoma.edu.ar#Race",
            "datatype": "http://www.w3.org/2001/XMLSchema#integer"
          }
        ],
        "methods": [],
        "position": {
          "x": 622,
          "y": 136
        }
      },
      {
        "name": "http://crowd.fi.uncoma.edu.ar#Callejero",
        "attrs": [],
        "methods": [],
        "position": {
          "x": 520,
          "y": 340
        }
      },
      {
        "name": "http://crowd.fi.uncoma.edu.ar#Adoptado",
        "attrs": [],
        "methods": [],
        "position": {
          "x": 757,
          "y": 315
        }
      },
      {
        "name": "http://crowd.fi.uncoma.edu.ar#Veterinario",
        "attrs": [],
        "methods": [],
        "position": {
          "x": 288,
          "y": 377
        }
      }
    ],
    "links": [
      {
        "name": "http://crowd.fi.uncoma.edu.ar#has",
        "classes": [
          "http://crowd.fi.uncoma.edu.ar#Person",
          "http://crowd.fi.uncoma.edu.ar#Dog"
        ],
        "multiplicity": null,
        "roles": [
          "http://crowd.fi.uncoma.edu.ar#person",
          "http://crowd.fi.uncoma.edu.ar#dog"
        ],
        "type": "association"
      },
      {
        "name": "http://crowd.fi.uncoma.edu.ar#atiende",
        "classes": [
          "http://crowd.fi.uncoma.edu.ar#Person",
          "http://crowd.fi.uncoma.edu.ar#Veterinario"
        ],
        "multiplicity": [
          "1..*",
          "1..1"
        ],
        "roles": [
          "http://crowd.fi.uncoma.edu.ar#atiendea",
          "http://crowd.fi.uncoma.edu.ar#vacon"
        ],
        "type": "association"
      },
      {
        "name": "http://crowd.fi.uncoma.edu.ar#s1",
        "parent": "http://crowd.fi.uncoma.edu.ar#Dog",
        "classes": [
          "http://crowd.fi.uncoma.edu.ar#Callejero",
          "http://crowd.fi.uncoma.edu.ar#Adoptado"
        ],
        "multiplicity": null,
        "roles": null,
        "type": "generalization",
        "constraint": [
          "disjoint",
          "covering"
        ],
        "position": {
          "x": 678,
          "y": 291
        }
      }
    ],
    "owllink": [
      "\n"
    ]
  }