{
    "Object type": [],
    "Subsumption": [],
    "Role": [
      {
        "association": "http://crowd.fi.uncoma.edu.ar#cursa",
        "rol": "http://crowd.fi.uncoma.edu.ar#estudiante"
      },
      {
        "association": "http://crowd.fi.uncoma.edu.ar#cursa",
        "rol": "http://crowd.fi.uncoma.edu.ar#curso"
      }
    ],
    "Association": [
      {
        "name": "http://crowd.fi.uncoma.edu.ar#cursa",
        "classes": [
          "http://crowd.fi.uncoma.edu.ar#Estudiante",
          "http://crowd.fi.uncoma.edu.ar#Curso"
        ],
        "roles": [
          "http://crowd.fi.uncoma.edu.ar#estudiante",
          "http://crowd.fi.uncoma.edu.ar#curso"
        ]
      }
    ],
    "Object type cardinality": [
      {
        "association": "http://crowd.fi.uncoma.edu.ar#cursa",
        "min..max left": "0..*",
        "min..max right": "0..*"
      }
    ],
    "Attribute": []
  }